#  MARKDOWN/CODE EDITOR FOR TCL/TK

[PROJECT]
#RUN = sudo ./configure && make && sudo make install && ./MyApp
RUN = wish ./xwriter

[PROJECT-BOOKMARK]
#  If duplicate files, only first occurence is valid
./xwriter.prj
./plugin/codeHighlight.tcl

[PROJECT-TREE]
#  Use Tab indentation to define tree level

MAIN
./xwriter
./config.tcl
./utility.tcl
./dialog.tcl
./config.cfg

MOUSE-KEY
./mouse.tcl
./shortcut.tcl

THEME-FONT
./font.tcl
./theme.tcl

PARSE-TAG
./parse.tcl
./tag.tcl


TOOLBAR
./toolbar
./toolbar-alias
./toolbar-html
./toolbar-tcl

SIDEBAR
./plugin/treeView.tcl
./plugin/paneView.tcl

PLUGIN
./plugin/projectMode.tcl
./plugin/buffer.tcl
./plugin/alias-html.tcl
./plugin/archive.tcl
./plugin/codeHighlight.tcl
./plugin/diagram.tcl
./plugin/diff.tcl
./plugin/extra.tcl
./plugin/grep.tcl
./plugin/image.tcl
./plugin/spell.tcl
./plugin/tableOfContent.tcl

PLUGIN-EXP
./pluginEXP/codeCompletion.tcl

EXPORT-IMPORT
./plugin/importAll.tcl
./plugin/exportAll.tcl
./plugin/exportHTML.tcl
